…
  4. I would create a new table with month, day, and year of special holidays that people fly less during. My new table would connect to the month, day, and year in flights and weather. 
  
##13.3.1 Exercises
  
  1. 
  

```r
flights %>%
  mutate(index = row_number()) %>%
  select(index, everything())
```

```
## # A tibble: 336,776 x 20
##    index  year month   day dep_time sched_dep_time dep_delay arr_time
##    <int> <int> <int> <int>    <int>          <int>     <dbl>    <int>
##  1     1  2013     1     1      517            515         2      830
##  2     2  2013     1     1      533            529         4      850
##  3     3  2013     1     1      542            540         2      923
##  4     4  2013     1     1      544            545        -1     1004
##  5     5  2013     1     1      554            600        -6      812
##  6     6  2013     1     1      554            558        -4      740
##  7     7  2013     1     1      555            600        -5      913
##  8     8  2013     1     1      557            600        -3      709
##  9     9  2013     1     1      557            600        -3      838
## 10    10  2013     1     1      558            600        -2      753
## # ... with 336,766 more rows, and 12 more variables: sched_arr_time <int>,
## #   arr_delay <dbl>, carrier <chr>, flight <int>, tailnum <chr>,
## #   origin <chr>, dest <chr>, air_time <dbl>, distance <dbl>, hour <dbl>,
## #   minute <dbl>, time_hour <dttm>
```
…
  2. 

```r
flights %>% 
  left_join(airports, by = c('dest' = 'faa')) %>%
  left_join(airports, by = c('origin' = 'faa'), suffix = c('.dest', '.origin')) %>%
  select(dest, origin, contains('lat'), contains('lon'))
```

```
## # A tibble: 336,776 x 6
##    dest  origin lat.dest lat.origin lon.dest lon.origin
##    <chr> <chr>     <dbl>      <dbl>    <dbl>      <dbl>
##  1 IAH   EWR        30.0       40.7    -95.3      -74.2
##  2 IAH   LGA        30.0       40.8    -95.3      -73.9
##  3 MIA   JFK        25.8       40.6    -80.3      -73.8
##  4 BQN   JFK        NA         40.6     NA        -73.8
##  5 ATL   LGA        33.6       40.8    -84.4      -73.9
##  6 ORD   EWR        42.0       40.7    -87.9      -74.2
##  7 FLL   EWR        26.1       40.7    -80.2      -74.2
##  8 IAD   LGA        38.9       40.8    -77.5      -73.9
##  9 MCO   JFK        28.4       40.6    -81.3      -73.8
## 10 ORD   LGA        42.0       40.8    -87.9      -73.9
## # ... with 336,766 more rows
```
…
  2. 

```r
 flights_100 <- flights %>%
  filter(!is.na(dep_delay)) %>%
  group_by(tailnum) %>%
  summarize(n = n()) %>%
  filter(n > 100)

flights %>%
  semi_join(flights_100, by = 'tailnum')
```

```
## # A tibble: 225,766 x 19
##     year month   day dep_time sched_dep_time dep_delay arr_time
##    <int> <int> <int>    <int>          <int>     <dbl>    <int>
##  1  2013     1     1      517            515         2      830
##  2  2013     1     1      533            529         4      850
##  3  2013     1     1      544            545        -1     1004
##  4  2013     1     1      554            558        -4      740
##  5  2013     1     1      555            600        -5      913
##  6  2013     1     1      557            600        -3      709
##  7  2013     1     1      557            600        -3      838
##  8  2013     1     1      558            600        -2      849
##  9  2013     1     1      558            600        -2      853
## 10  2013     1     1      558            600        -2      923
## # ... with 225,756 more rows, and 12 more variables: sched_arr_time <int>,
## #   arr_delay <dbl>, carrier <chr>, flight <int>, tailnum <chr>,
## #   origin <chr>, dest <chr>, air_time <dbl>, distance <dbl>, hour <dbl>,
## #   minute <dbl>, time_hour <dttm>
```
…
